<?xml version="1.0" encoding="UTF-8" standalone="no"?>
<!-- Created with Inkscape (http://www.inkscape.org/) -->

<svg
   width="1280"
   height="720"
   viewBox="0 0 1280 720"
   version="1.1"
   id="svg5"
   inkscape:version="1.2.2 (b0a8486541, 2022-12-01)"
   sodipodi:docname="face2.svg"
   xml:space="preserve"
   xmlns:inkscape="http://www.inkscape.org/namespaces/inkscape"
   xmlns:sodipodi="http://sodipodi.sourceforge.net/DTD/sodipodi-0.dtd"
   xmlns:xlink="http://www.w3.org/1999/xlink"
   xmlns="http://www.w3.org/2000/svg"
   xmlns:svg="http://www.w3.org/2000/svg"><sodipodi:namedview
     id="namedview7"
     pagecolor="#ffffff"
     bordercolor="#000000"
     borderopacity="0.25"
     inkscape:showpageshadow="2"
     inkscape:pageopacity="0.0"
     inkscape:pagecheckerboard="0"
     inkscape:deskcolor="#d1d1d1"
     inkscape:document-units="px"
     showgrid="false"
     inkscape:zoom="0.69771555"
     inkscape:cx="643.52873"
     inkscape:cy="270.16741"
     inkscape:window-width="1920"
     inkscape:window-height="1043"
     inkscape:window-x="1920"
     inkscape:window-y="0"
     inkscape:window-maximized="1"
     inkscape:current-layer="layer1"
     showborder="false"><inkscape:grid
       type="xygrid"
       id="grid179" /></sodipodi:namedview><defs
     id="defs2"><rect
       x="72.568723"
       y="84.688354"
       width="900.77852"
       height="571.06912"
       id="rect1118" /><rect
       x="0"
       y="0"
       width="1280"
       height="720"
       id="rect57267" /><rect
       x="440"
       y="160"
       width="1245"
       height="720"
       id="rect57159" /><linearGradient
       inkscape:collect="always"
       id="linearGradient53781"><stop
         style="stop-color:#e80e81;stop-opacity:1"
         offset="0"
         id="stop53777" /><stop
         style="stop-color:#0feed5;stop-opacity:1;"
         offset="1"
         id="stop53779" /></linearGradient><linearGradient
       inkscape:collect="always"
       id="linearGradient53629"><stop
         style="stop-color:#0feed5;stop-opacity:1;"
         offset="0"
         id="stop53625" /><stop
         style="stop-color:#ae14e3;stop-opacity:0.97000003;"
         offset="1"
         id="stop53627" /></linearGradient><linearGradient
       inkscape:collect="always"
       id="linearGradient34269"><stop
         style="stop-color:#1d0a3d;stop-opacity:1;"
         offset="0"
         id="stop34265" /><stop
         style="stop-color:#50159a;stop-opacity:1;"
         offset="1"
         id="stop34267" /></linearGradient><inkscape:path-effect
       effect="perspective-envelope"
       up_left_point="0,279.36"
       up_right_point="720,279.36435"
       down_left_point="-1025.58,720"
       down_right_point="1745.58,720"
       id="path-effect291"
       is_visible="true"
       lpeversion="1"
       deform_type="perspective"
       horizontal_mirror="false"
       vertical_mirror="false"
       overflow_perspective="false" /><inkscape:path-effect
       effect="perspective-envelope"
       up_left_point="0,0"
       up_right_point="720,0"
       down_left_point="0,720"
       down_right_point="720,720"
       id="path-effect1686"
       is_visible="true"
       lpeversion="1"
       deform_type="perspective"
       horizontal_mirror="false"
       vertical_mirror="false"
       overflow_perspective="false" /><clipPath
       clipPathUnits="userSpaceOnUse"
       id="clipPath431"><rect
         style="opacity:1;fill:#1a1a1a;fill-opacity:1"
         id="rect433"
         width="720"
         height="720"
         x="0"
         y="0" /></clipPath><clipPath
       clipPathUnits="userSpaceOnUse"
       id="clipPath11922"><circle
         style="opacity:1;fill:url(#meshgradient11926);fill-opacity:1"
         id="circle11924"
         cx="1345.3157"
         cy="67.127762"
         r="240" /></clipPath><meshgradient
       inkscape:collect="always"
       id="meshgradient11926"
       gradientUnits="userSpaceOnUse"
       gradientTransform="translate(-224.86589,-172.8722)"
       x="1400.476"
       y="70.294373"><meshrow
         id="meshrow11938"><meshpatch
           id="meshpatch11936"><stop
             path="c 93.7258,-93.7258  245.685,-93.7258  339.411,0"
             style="stop-color:#bc36ec;stop-opacity:1"
             id="stop11928" /><stop
             path="c 93.7258,93.7258  93.7258,245.685  0,339.411"
             style="stop-color:#e34172;stop-opacity:1"
             id="stop11930" /><stop
             path="c -93.7258,93.7258  -245.685,93.7258  -339.411,0"
             style="stop-color:#14fce0;stop-opacity:1"
             id="stop11932" /><stop
             path="c -93.7258,-93.7258  -93.7258,-245.685  0,-339.411"
             style="stop-color:#edbc7c;stop-opacity:1"
             id="stop11934" /></meshpatch></meshrow></meshgradient><linearGradient
       inkscape:collect="always"
       xlink:href="#linearGradient34269"
       id="linearGradient34271"
       x1="542.34375"
       y1="321.66669"
       x2="1260"
       y2="700"
       gradientUnits="userSpaceOnUse"
       gradientTransform="matrix(1.024,0,0,1.0434782,-15.36,-15.652174)" /><linearGradient
       inkscape:collect="always"
       xlink:href="#linearGradient53629"
       id="linearGradient52753"
       x1="1980"
       y1="360"
       x2="2740"
       y2="800"
       gradientUnits="userSpaceOnUse"
       gradientTransform="translate(-1460,-80)" /><linearGradient
       inkscape:collect="always"
       xlink:href="#linearGradient53781"
       id="linearGradient53791"
       x1="540"
       y1="260"
       x2="1280"
       y2="720"
       gradientUnits="userSpaceOnUse" /><linearGradient
       inkscape:collect="always"
       xlink:href="#linearGradient53781"
       id="linearGradient53847"
       gradientUnits="userSpaceOnUse"
       x1="540"
       y1="260"
       x2="1280"
       y2="720"
       gradientTransform="translate(3000)" /><linearGradient
       inkscape:collect="always"
       xlink:href="#linearGradient34269"
       id="linearGradient53849"
       gradientUnits="userSpaceOnUse"
       gradientTransform="matrix(1.024,0,0,1.0434782,2984.64,-15.65217)"
       x1="542.34375"
       y1="321.66669"
       x2="1260"
       y2="700" /><clipPath
       clipPathUnits="userSpaceOnUse"
       id="clipPath56302"><path
         style="color:#000000;fill:#f2f2f2;fill-opacity:1;stroke-width:29.3288;stroke-linecap:round;-inkscape-stroke:none"
         d="M 2754.714,-60.473429 H 3965.2861 V 620.47339 H 2754.714 Z"
         id="path56304" /></clipPath><clipPath
       clipPathUnits="userSpaceOnUse"
       id="clipPath60394"><path
         style="color:#000000;fill:url(#linearGradient60398);fill-opacity:1;stroke-width:31.0108;stroke-linecap:round;-inkscape-stroke:none"
         d="M 0,0 H 1280 V 720 H 0 Z"
         id="path60396" /></clipPath><linearGradient
       inkscape:collect="always"
       xlink:href="#linearGradient34269"
       id="linearGradient60398"
       gradientUnits="userSpaceOnUse"
       gradientTransform="matrix(1.024,0,0,1.0434782,-15.36,-15.652174)"
       x1="542.34375"
       y1="321.66669"
       x2="1260"
       y2="700" /><rect
       x="72.568723"
       y="84.688354"
       width="900.77852"
       height="571.06912"
       id="rect5372" /><filter
       inkscape:collect="always"
       style="color-interpolation-filters:sRGB"
       id="filter32227"
       x="-0.021836925"
       y="-0.11901123"
       width="1.0436738"
       height="1.2380225"><feGaussianBlur
         inkscape:collect="always"
         stdDeviation="3.5073239"
         id="feGaussianBlur32229" /></filter><filter
       inkscape:collect="always"
       style="color-interpolation-filters:sRGB"
       id="filter32517"
       x="-0.00588"
       y="-0.00588"
       width="1.01176"
       height="1.01176"><feGaussianBlur
         inkscape:collect="always"
         stdDeviation="1.176"
         id="feGaussianBlur32519" /></filter><filter
       inkscape:collect="always"
       style="color-interpolation-filters:sRGB"
       id="filter8188"
       x="-0.058596343"
       y="-0.31935006"
       width="1.1171927"
       height="1.6387001"><feGaussianBlur
         inkscape:collect="always"
         stdDeviation="10.463515"
         id="feGaussianBlur8190" /></filter><clipPath
       clipPathUnits="userSpaceOnUse"
       id="clipPath3896"><path
         style="color:#000000;opacity:1;fill:url(#linearGradient3900);fill-opacity:1;stroke-width:31.0108;stroke-linecap:round;-inkscape-stroke:none"
         d="m 0,-5e-5 h 1280 v 720.0001 H 0 Z"
         id="path3898" /></clipPath><linearGradient
       inkscape:collect="always"
       xlink:href="#linearGradient34269"
       id="linearGradient3900"
       gradientUnits="userSpaceOnUse"
       gradientTransform="matrix(1.024,0,0,1.0434782,-15.36,-15.65215)"
       x1="542.34375"
       y1="321.66669"
       x2="1260"
       y2="700" /></defs><g
     inkscape:label="Layer 1"
     inkscape:groupmode="layer"
     id="layer1"><image
       width="1280"
       height="853.21149"
       preserveAspectRatio="none"
       xlink:href="../third-parties/unsplash-free-images/marius-masalar-CyFBmFEsytU-unsplash.jpg"
       id="image3891"
       x="-2.8421709e-14"
       y="-79.718506"
       clip-path="url(#clipPath3896)" /><path
       style="color:#000000;opacity:0.713845;fill:url(#linearGradient34271);fill-opacity:1;stroke-width:31.0108;stroke-linecap:round;-inkscape-stroke:none"
       d="M 0,0 H 1280 V 720 H 0 Z"
       id="path53819"
       sodipodi:insensitive="true" /><path
       style="fill:#ffffff;fill-opacity:1;stroke:none;stroke-width:2.55931;stroke-dasharray:none;opacity:0.4;filter:url(#filter32517)"
       d="m 1105.4186,196.37776 c 0.092,-99.229492 0.2475,-109.657762 1.4934,-100.250002 14.6963,110.967472 98.4362,194.707402 209.4037,209.403692 9.4078,1.24595 -1.0205,1.4013 -100.25,1.49346 l -110.75,0.10285 z m 268.8971,109.15369 c 110.9675,-14.69629 194.7074,-98.43622 209.4037,-209.403692 1.2459,-9.40776 1.4013,1.02051 1.4935,100.250002 l 0.1028,110.75 -110.75,-0.10285 c -99.2295,-0.0922 -109.6578,-0.24751 -100.25,-1.49346 z m -6.5,-18.08628 c -1.1,-0.24782 -6.7183,-1.56243 -12.4851,-2.92135 -16.0829,-3.78988 -21.7359,-4.33385 -33.739,-3.24656 -10.6417,0.96396 -11.0176,0.92559 -20.412,-2.08373 -5.2639,-1.68617 -10.844,-3.06577 -12.4002,-3.06577 -4.1114,0 -25.3181,-7.42741 -37.2295,-13.03924 -58.537,-27.57851 -102.5601,-79.74609 -118.1824,-140.04697 -5.7247,-22.09688 -6.4667,-28.366852 -6.4992,-54.913792 -0.026,-21.38351 0.2594,-26.02645 2.2447,-36.5 7.0375,-37.1280399 19.4419,-65.86712 40.8389,-94.61788 34.6903,-46.612668 86.9647,-77.555408 145.312,-86.014458 19.0579,-2.76296 51.3184,-2.29146 68.5518,1.00191 38.0728,7.27586 69.7985,21.61084 99.21,44.82712 10.0427,7.927311 30.129,28.4735 37.9347,38.803308 23.5292,31.1376 39.0735,69.8788901 43.3332,108 1.4823,13.26573 1.2377,39.75296 -0.4888,52.92359 -3.9054,29.792182 -15.5623,61.073182 -32.2627,86.576412 -9.0523,13.82381 -15.1619,21.33654 -27.5134,33.83213 -28.2925,28.62249 -61.5047,47.7455 -101.0821,58.20135 -5.9781,1.57931 -10.9518,3.00536 -11.0527,3.169 -4.9297,7.99225 -7.9816,9.82927 -16.0782,9.67778 -3.3,-0.0617 -6.9,-0.31503 -8,-0.56285 z m 16.6769,-6.1842 3.2085,-2.86679 -11.4427,-0.46334 c -10.9972,-0.44531 -11.9428,-0.66615 -24.2891,-5.67274 -8.2943,-3.36343 -15.3223,-5.52028 -19.8335,-6.08673 -11.4002,-1.43145 -10.9227,-2.2645 2.885,-5.03252 11.4636,-2.29808 15.1551,-3.67119 22.5494,-8.38734 8.9393,-5.70159 13.5917,-7.67887 22.7931,-9.6871 12.4829,-2.72443 19.9524,-5.65729 19.9524,-7.83418 0,-2.42625 -4.0043,-5.95652 -8.0833,-7.12635 -5.5119,-1.5808 -18.5134,-1.23654 -20.2871,0.53717 -1.3511,1.35105 -2.2432,1.22301 -8.3215,-1.19436 -6.0652,-2.41219 -8.1175,-2.7086 -18.8081,-2.7164 -10.2937,-0.008 -14.8439,0.59066 -32,4.20663 -11,2.31847 -22.25,4.93705 -25,5.81908 -7.4174,2.37905 -31.2921,3.03672 -38.7745,1.06811 -4.9216,-1.29487 -16.3876,-7.38129 -15.5135,-8.23494 0.1584,-0.15472 3.663,0.82245 7.788,2.17147 8.0867,2.64463 26.5942,5.12057 29.614,3.96176 1.4176,-0.54399 -0.7006,-1.99045 -9.0294,-6.16594 -36.0531,-18.07465 -64.7372,-47.31918 -82.0528,-83.65596 -17.1043,-35.89365 -21.5867,-75.811222 -12.8878,-114.772742 16.3715,-73.3264 75.1811,-128.917563 149.856,-141.655028 13.934,-2.37675 45.4232,-2.38341 58.5,-0.0124 39.2233,7.11178 72.2426,24.076343 99.5908,51.167418 55.1877,54.6689101 69.8723,137.52808 36.7684,207.469042 -24.95,52.71365 -74.2985,90.58084 -132.2248,101.46153 -7.0289,1.32029 -16.8503,5.18686 -15.8121,6.22504 0.2683,0.26831 7.7112,-0.48341 20.6777,-2.08839 l 4.5,-0.55701 -5,1.49375 c -2.75,0.82157 -10.175,2.42593 -16.5,3.56525 -11.2194,2.02095 -22,5.84018 -22,7.79391 0,2.8569 14.5093,8.50721 26.0476,10.14364 6.2183,0.88191 8.7025,0.68924 19.6234,-1.52198 64.1848,-12.99597 119.4535,-55.46541 148.3369,-113.98478 34.5012,-69.901362 25.9019,-155.2576019 -22.0718,-219.085072 -35.3803,-47.072188 -88.6437,-77.342678 -148.4361,-84.358728 -11.2527,-1.3204 -45.154,-0.51058 -56,1.33769 -71.1613,12.12666 -128.4198,54.503532 -159.5819,118.106108 -46.8671,95.65666 -16.2401,208.445092 72.8139,268.147572 15.216,10.20096 43.6196,23.39232 57.6018,26.75173 3.7458,0.9 2.655,-0.83623 -1.8763,-2.98648 -1.9016,-0.90239 -3.4575,-2.03943 -3.4575,-2.52676 0,-2.09574 4.7845,-0.54874 12.3611,3.99679 17.3459,10.40652 21.6451,11.64648 32.9232,9.49562 10.526,-2.00742 14.1575,-1.75123 28.912,2.03961 15.9659,4.10208 16.8665,4.27216 23.5379,4.44574 4.4542,0.11588 5.7124,-0.29107 8.4427,-2.73061 z m 5.6356,-30.81632 c 0.7219,-0.28887 1.5844,-0.25335 1.9167,0.0789 0.3323,0.33229 -0.2584,0.56864 -1.3125,0.52522 -1.165,-0.048 -1.4019,-0.28494 -0.6042,-0.60416 z m 22.6875,-7.18293 c 40.3807,-16.13611 76.6394,-45.22329 99.3526,-79.70197 9.5571,-14.50764 9.5638,-14.51631 6.0728,-7.93199 -20.3736,38.42599 -58.1267,71.18034 -100.1317,86.87366 -11.373,4.249 -15.5117,4.84342 -5.2937,0.7603 z m -79.4017,-2.14892 c -2.9709,-1.06855 -9.1584,-2.68889 -13.75,-3.60077 -4.5915,-0.91188 -8.3483,-2.00408 -8.3483,-2.42712 0,-1.90408 10.2,-4.17433 21,-4.67405 8.8394,-0.40899 13.0038,-0.1473 18,1.13116 7.1628,1.83286 14,5.78863 14,8.09993 0,1.7435 -0.9238,1.84547 -4.4779,0.49422 -1.954,-0.74293 -4.4104,-0.49216 -9.795,1 -8.7617,2.42798 -9.8173,2.42649 -16.6288,-0.0234 z m 4.2454,-3.77871 c -0.4267,-1.63158 -1.3281,-2.20633 -3.4603,-2.20633 -3.6933,0 -3.6315,0.57446 0.3203,2.97768 3.7045,2.25287 3.9172,2.20063 3.14,-0.77135 z m 10.474,0.43684 c 2.4438,-1.35596 1.8065,-2.57546 -2.0677,-3.95655 -1.4138,-0.50399 -1.75,-0.0535 -1.75,2.34476 0,3.29396 0.4463,3.48239 3.8177,1.61179 z m 40.2281,-2.73403 c -2.3453,-1.05003 -4.8901,-1.90914 -5.655,-1.90914 -0.7649,0 -1.3908,-0.45 -1.3908,-1 0,-1.31877 4.0481,-1.26849 9.5572,0.11871 4.3143,1.08635 5.831,3.13462 3.0978,4.18344 -0.7398,0.28387 -3.2639,-0.34299 -5.6092,-1.39301 z m -168.6097,-15.55335 c -20.0669,-13.43618 -37.4269,-34.92446 -50.0665,-61.9725 -5.021,-10.74458 -5.2703,-14.11252 -0.3135,-4.23448 10.4312,20.78757 31.6451,47.18895 52.2196,64.98916 3.7266,3.22412 6.3978,5.86203 5.9361,5.86203 -0.4618,0 -3.9608,-2.08989 -7.7757,-4.64421 z m 301.5639,-70.85579 c 0,-0.275 0.225,-0.5 0.5,-0.5 0.275,0 0.5,0.225 0.5,0.5 0,0.275 -0.225,0.5 -0.5,0.5 -0.275,0 -0.5,-0.225 -0.5,-0.5 z m -357,-3.5 c 0,-0.73333 0.3,-1.03333 0.6667,-0.66667 0.3666,0.36667 0.3666,0.96667 0,1.33334 -0.3667,0.36666 -0.6667,0.0667 -0.6667,-0.66667 z m -7.9211,-21.58333 c 0.048,-1.16495 0.285,-1.4019 0.6042,-0.60417 0.2889,0.72187 0.2534,1.58438 -0.079,1.91667 -0.3323,0.33229 -0.5687,-0.25834 -0.5253,-1.3125 z m -2.3892,-8.13942 c -4.4705,-16.252702 -5.1862,-22.360682 -5.188,-44.277252 0,-23.61559 1.3796,-33.14342 7.6557,-52.80195 3.0737,-9.6274099 9.8416,-26.5323399 10.3992,-25.9748199 0.1744,0.17446 -1.6605,5.25811 -4.0777,11.29699 -9.2097,23.0087799 -14.1922,50.6636699 -13.0895,72.6524899 0.6459,12.87993 2.8632,29.148532 5.2046,38.187912 0.835,3.22335 1.3306,6.04811 1.1015,6.27725 -0.2292,0.22914 -1.1318,-2.18314 -2.0058,-5.36062 z m 381.3103,-1.27725 c 0,-0.73333 0.3,-1.03333 0.6667,-0.66667 0.3666,0.36667 0.3666,0.96667 0,1.33334 -0.3667,0.36666 -0.6667,0.0667 -0.6667,-0.66667 z m 1.079,-3.58333 c 0.048,-1.16495 0.2849,-1.4019 0.6041,-0.60417 0.2889,0.72187 0.2534,1.58438 -0.079,1.91667 -0.3323,0.33229 -0.5686,-0.25834 -0.5252,-1.3125 z m 1,-4 c 0.048,-1.16495 0.2849,-1.4019 0.6041,-0.60417 0.2889,0.72187 0.2534,1.58438 -0.079,1.91667 -0.3323,0.33229 -0.5686,-0.25834 -0.5252,-1.3125 z m 1.0244,-2.91667 c -0.038,-0.55 0.5626,-4.848822 1.334,-9.552932 7.8373,-47.79631 -5.7586,-98.7997399 -37.7372,-141.56612 -36.2395,-48.464731 -90.5838,-77.835498 -148.1799,-80.084818 -23.2709,-0.90881 -45.3437,2.05275 -65.1186,8.73711 -4.8101,1.6259 -8.9238,2.77805 -9.1415,2.56032 -0.6038,-0.60378 14.4716,-6.23456 24.4057,-9.11572 16.8555,-4.88858 31.9396,-6.7348 50.3341,-6.16066 25.7949,0.80514 45.6574,5.93145 70.694,18.24543 22.9492,11.28731 41.6075,24.749009 59.9717,43.268568 45.4765,45.86129 65.8996,104.57663 56.4076,162.16882 -1.076,6.52867 -2.842,13.366972 -2.9699,11.500002 z M 1167.3157,-9.3722419 c 0,-0.275 0.225,-0.5 0.5,-0.5 0.275,0 0.5,0.225 0.5,0.5 0,0.275 -0.225,0.5 -0.5,0.5 -0.275,0 -0.5,-0.225 -0.5,-0.5 z m 1,-2.0000001 c 0,-0.275 0.225,-0.5 0.5,-0.5 0.275,0 0.5,0.225 0.5,0.5 0,0.275 -0.225,0.5 -0.5,0.5 -0.275,0 -0.5,-0.225 -0.5,-0.5 z m 1,-2 c 0,-0.275 0.225,-0.5 0.5,-0.5 0.275,0 0.5,0.225 0.5,0.5 0,0.275 -0.225,0.5 -0.5,0.5 -0.275,0 -0.5,-0.225 -0.5,-0.5 z m 35.4151,-50.5 c 8.9422,-9.826295 21.4,-21.223328 29.3349,-26.836941 5.4898,-3.883805 3.5983,-1.665892 -2.5,2.931388 -3.1625,2.384106 -11.825,10.200672 -19.25,17.370143 -7.425,7.16948 -10.8382,10.11041 -7.5849,6.53541 z m 34.0849,-30 c 0.3399,-0.55 0.843,-1 1.118,-1 0.275,0 0.2219,0.45 -0.118,1 -0.3399,0.55 -0.843,1 -1.118,1 -0.275,0 -0.2219,-0.45 0.118,-1 z m 3.5,-2.5 c 0,-0.275 0.225,-0.5 0.5,-0.5 0.275,0 0.5,0.225 0.5,0.5 0,0.275 -0.225,0.5 -0.5,0.5 -0.275,0 -0.5,-0.225 -0.5,-0.5 z m 33,-17.999998 c 0,-0.275 0.225,-0.5 0.5,-0.5 0.275,0 0.5,0.225 0.5,0.5 0,0.275 -0.225,0.5 -0.5,0.5 -0.275,0 -0.5,-0.225 -0.5,-0.5 z m 2,-1 c 0,-0.275 0.225,-0.5 0.5,-0.5 0.275,0 0.5,0.225 0.5,0.5 0,0.275 -0.225,0.5 -0.5,0.5 -0.275,0 -0.5,-0.225 -0.5,-0.5 z m 140.8946,345.22637 c 51.6919,-22.39968 90.0041,-69.74488 102.2288,-126.33183 2.7176,-12.579672 3.7593,-45.013492 1.886,-58.721732 -8.6334,-63.17601 -50.6854,-117.29244 -109.747,-141.232568 -35.1736,-14.2573 -75.003,-16.72589 -112.5329,-6.97469 -56.5076,14.682048 -103.4058,58.368548 -122.4039,114.021468 -7.2191,21.14756 -9.7067,38.28616 -9.0662,62.46213 0.756,28.538302 5.1696,46.341392 17.7383,71.550852 17.3061,34.71138 43.5051,60.81242 78.9999,78.70438 11.0041,5.54686 11.8244,5.79562 19.1125,5.79562 4.4808,0 17.0224,-1.67024 30.4713,-4.05806 32.216,-5.71985 33.3512,-5.78247 44.2454,-2.44062 8.0297,2.46316 9.5355,2.64489 13.5464,1.63493 12.8248,-3.22932 26.8979,0.17044 30.3082,7.32179 1.9786,4.14917 1.522,4.20114 15.2132,-1.73167 z m -75.5553,-21.66111 c -5.0438,-3.07547 -6.1564,-10.11618 -2.4013,-15.19522 2.4574,-3.32389 2.5376,-3.87004 0.5682,-3.87004 -1.3097,0 -1.5253,-9.39498 -1.75,-76.25 l -0.2562,-76.250002 -5.25,-0.30226 -5.25,-0.30226 v -5.19774 -5.19774 l -5.7476,-2.95819 c -8.0958,-4.16636 -19.1399,-15.4417399 -23.0597,-23.54180995 -8.2358,-17.01891005 -8.2358,-32.98109005 0,-50.00000005 6.1002,-12.60577 23.038,-26.263495 35.4614,-28.594139 3.1423,-0.589503 3.2289,-0.742663 3.12,-5.522925 -0.093,-4.088654 0.3518,-5.400726 2.6422,-7.791431 7.4462,-7.772113 19.9054,-1.733456 18.2164,8.828996 l -0.5787,3.618805 6.4487,1.84683 c 8.4782,2.428035 20.0054,10.094324 25.8465,17.189514 5.4865,6.66433 9.9632,15.68093 11.6803,23.52539 1.7425,7.96039 0.821,22.93353 -1.8709,30.3989601 -4.6103,12.78577 -15.591,25.1082699 -27.3484,30.6903299 l -4.8062,2.28183 v 5.26392 5.26392 h -5 -5 v 58 c 0,57.333332 0.023,58.000002 2,58.000002 1.873,0 2,-0.66667 2,-10.5 v -10.5 h 7 c 5.1012,0 7,0.35503 7,1.30887 0,0.71988 0.6506,2.18238 1.4457,3.25 1.3846,1.85917 1.4943,1.8039 2.5978,-1.30887 l 1.1522,-3.25 h 13.4021 13.4022 v 11 11 h -8.5 c -8.2943,0 -8.5,0.0578 -8.5,2.38861 0,2.36915 0.069,2.38462 8.5,1.89951 l 8.5,-0.48908 v 9.60048 9.60048 h -8.5 c -7.8333,0 -8.5,0.15686 -8.5,2 0,1.84314 0.6667,2 8.5,2 h 8.5 l 0.1493,7.75 c 0.082,4.2625 0.1872,9.1 0.2334,10.75 l 0.084,3 -13.2416,0.27908 -13.2415,0.27908 -1.1523,-2.52908 c -1.4816,-3.25163 -2.4041,-3.1949 -3.5923,0.22092 -0.9319,2.67893 -1.1282,2.74133 -7.5978,2.41467 l -6.6412,-0.33532 v -9.91468 c 0,-9.90898 0,-9.91467 -2.5,-9.91467 -2.1905,0 -2.5,0.43333 -2.5,3.5 0,2.81548 -0.3853,3.5 -1.9699,3.5 -1.8551,0 -1.8209,0.21833 0.5887,3.75 6.8731,10.0741 -3.9092,21.63859 -14.2795,15.31526 z m 8.981,-6.91657 c 0.6519,-3.25946 -0.1299,-7.14869 -1.4369,-7.14869 -0.4859,0 -0.8834,-1.125 -0.8834,-2.5 0,-1.375 -0.45,-2.5 -1,-2.5 -0.55,0 -1,1.05526 -1,2.34501 0,1.28976 -0.9,3.1595 -2,4.15499 -3.5789,3.23887 -1.7776,8.5 2.9102,8.5 2.3224,0 2.9437,-0.51947 3.4101,-2.85131 z m 21.8295,-7.14869 c 0.9663,-2.77192 1.4111,-3 5.8502,-3 4.4391,0 4.8839,0.22808 5.8502,3 0.9216,2.64394 1.5101,3 4.9582,3 2.1519,0 6.0003,-0.28617 8.552,-0.63592 l 4.6396,-0.63593 v -4.86407 -4.86408 h -8.4239 -8.4238 l -0.3262,-8.00235 -0.3261,-8.00235 8.1334,0.002 c 7.6812,0.002 8.1578,-0.12486 8.5708,-2.28539 0.8234,-4.30698 0.068,-4.71191 -8.7875,-4.71191 h -8.4167 v -8 -8 h 8.5 8.5 v -5.5 c 0,-6.25505 0.4773,-6.04183 -10.8705,-4.85575 -5.3834,0.56268 -6.2387,0.94251 -6.7551,3 -0.5276,2.10246 -1.1593,2.35575 -5.8744,2.35575 -4.8014,0 -5.3404,-0.22798 -5.9106,-2.5 -0.3452,-1.375 -1.2415,-2.5 -1.992,-2.5 -1.4442,0 -1.8982,3.17547 -3.288,23 l -0.7361,10.5 -0.9262,-6.25 c -0.9252,-6.24301 -0.93,-6.25 -4.2866,-6.25 h -3.3605 v 9 9 h 5 5 v 9.83333 c 0,5.40834 0.3,10.13334 0.6667,10.5 1.5151,1.51515 3.5021,0.48101 4.4831,-2.33333 z m -21.1498,-87 V 31.127758 h 5 c 2.75,0 5,-0.45 5,-1 0,-0.55 -2.25,-1 -5,-1 -4.6832,0 -5,-0.16039 -5,-2.53138 0,-1.39227 0.5625,-2.68085 1.25,-2.86353 0.6875,-0.18268 3.5,-0.85582 6.25,-1.49588 24.5742,-5.7196 41.4212,-30.2800399 37.6692,-54.91647 -4.7738,-31.34641 -36.2856,-50.236283 -66.198,-39.68259 -13.1578,4.64236 -25.1684,17.23293 -29.9341,31.3796 -2.4223,7.19051 -2.72,19.95639 -0.647,27.74186 4.6889,17.6094801 20.3527,32.40613 37.8192,35.72552 5.3965,1.02555 5.7907,1.28914 5.7907,3.87167 0,2.65877 -0.2029,2.7712 -5,2.7712 -2.75,0 -5,0.45 -5,1 0,0.55 2.25,1 5,1 h 5 v 76.000002 76 h 4 4 z m -4.3575,29.85331 c -0.9146,-8.74952 -0.6268,-187.329092 0.3115,-193.353312 0.4283,-2.75 0.8389,41.0125 0.9124,97.25 0.073,56.2375 -0.027,102.250002 -0.2239,102.250002 -0.1967,0 -0.6467,-2.76601 -1,-6.14669 z m -9.5379,-122.435832 c -15.5067,-4.16999 -28.3838,-17.6689499 -30.6855,-32.16748 l -0.6747,-4.25 h 18.6278 18.6278 v 19.0000001 c 0,10.45 -0.1125,18.9703799 -0.25,18.9341899 -0.1375,-0.0362 -2.6779,-0.71872 -5.6454,-1.51671 z m 0.4602,-30.10926 c -0.3751,-0.97732 -3.5453,-1.30822 -12.5334,-1.30822 -13.5815,0 -13.5737,-0.006 -9.9268,7.2898401 3.7901,7.58211 11.4296,14.39582 19.3954,17.29883 l 3,1.09331 0.2834,-11.53278 c 0.1559,-6.34302 0.058,-12.1214601 -0.2186,-12.8409801 z m -11.5008,27.90453 c -12.5894,-6.2825599 -21.5142,-18.5570999 -24.1282,-33.1842 -3.9839,-22.29251 12.5562,-45.34659 34.0642,-47.47963 l 5.5,-0.54546 -5.8659,1.50142 c -17.469,4.47127 -28.4793,16.4541 -31.7053,34.50568 -1.478,8.2702 -0.3931,16.30661 3.2177,23.8351001 2.9548,6.16077 13.0536,16.65336 19.6035,20.3678999 2.8875,1.63755 5.25,3.1594 5.25,3.3819 0,0.58183 0.023,0.59112 -5.936,-2.38271 z m 24.936,-15.5768299 V -21.872242 h 19.019 19.0191 l -0.6078,2.75 c -2.3447,10.6086801 -7.9442,20.3557701 -14.6143,25.4390901 -5.2792,4.0232899 -13.4497,7.7989599 -18.3222,8.4668099 l -4.4938,0.61595 z m 17.3025,6.64542 c 5.6649,-3.91231005 11.072,-11.33326 13.1382,-18.0313401 l 0.6941,-2.25 h -12.5674 -12.5674 v 13.0134201 13.01342 l 3.75,-1.55969 c 2.0625,-0.85783 5.4611,-2.74144 7.5525,-4.18581 z m -61.9084,-37.5313401 c 2.2559,-14.75525 16.45,-29.0529 32.3559,-32.59182 l 4.25,-0.94559 v 18.89371 18.8937 h -18.6278 -18.6278 z m 31.3858,-14 c 0.1539,-7.0125 0.014,-12.75 -0.312,-12.75 -0.3254,0 -2.9264,1.10572 -5.7798,2.45717 -8.2742,3.9188 -18.6881,16.07171 -18.6881,21.8088 0,1.64501 1.0273,1.77204 12.25,1.51481 l 12.25,-0.28078 z m 13.2201,-0.25 v -18.5 l 3.25,7.9e-4 c 3.7106,9e-4 14.106,4.6435 19.3451,8.63954 6.8885,5.25414 12.4632,14.87762 14.8352,25.60967 l 0.6078,2.75 h -19.019 -19.0191 z m 30.3728,12.70574 c 0.7386,-1.19496 -2.9737,-8.91407 -6.3171,-13.13541 -3.3519,-4.23217 -8.8074,-8.25066 -14.3057,-10.53748 l -3.75,-1.55969 v 13.01342 13.01342 h 11.941 c 6.5675,0 12.1619,-0.35742 12.4318,-0.79426 z m -29.3728,-50.714965 c 0,-2.472984 -3.2369,-5.080416 -4.9741,-4.006778 -0.513,0.317066 -1.8617,1.881067 -2.9971,3.475557 l -2.0643,2.899073 2.5177,2.716709 c 1.3848,1.49419 2.5178,3.163795 2.5178,3.710234 0,0.546438 1.125,-0.664256 2.5,-2.690432 1.375,-2.026176 2.5,-4.773139 2.5,-6.104363 z m -247.8971,24.259225 -0.1029,-110.749998 110.75,0.10285 c 99.2295,0.0922 109.6578,0.24751 100.25,1.49346 -53.5891,7.09722 -100.2345,29.4766 -138.3671,66.38534 -39.0341,37.781198 -63.6674,87.375508 -71.0366,143.018348 -1.2459,9.40776 -1.4013,-1.02051 -1.4934,-100.25 z m 478.8971,107.28027 c 0,-6.02806 -3.2736,-24.9079 -6.5323,-37.6735599 -14.77,-57.8605301 -51.6151,-109.2607281 -101.4677,-141.5507781 -30.6132,-19.82851 -64.7272,-32.27329 -102,-37.20962 -9.4078,-1.24595 1.0205,-1.4013 100.25,-1.49346 l 110.75,-0.10285 v 110.499998 c 0,60.7750001 -0.225,110.5 -0.5,110.5 -0.275,0 -0.5,-1.33638 -0.5,-2.96973 z"
       id="path11900"
       clip-path="url(#clipPath11922)"
       transform="matrix(1.1721911,0,0,1.1721911,-936.96707,281.31344)" /><path
       id="rect52638"
       style="opacity:0.9;fill:url(#linearGradient52753);fill-opacity:1;stroke:none;stroke-width:30;stroke-linecap:round;stroke-linejoin:miter;stroke-dasharray:none;stroke-opacity:1;paint-order:normal"
       d="M 0,0 V 720 H 1280 V 0 Z m 60,30 h 1160 c 16.62,0 30,13.38002 30,30 v 600 c 0,16.61998 -13.38,30 -30,30 H 60 C 43.38,690 30,676.61998 30,660 V 60 C 30,43.38002 43.38,30 60,30 Z" /><g
       id="g32239"><g
         id="g2386"><text
           xml:space="preserve"
           id="text5370"
           style="font-weight:bold;font-size:133.333px;line-height:0.8;font-family:Swanston;-inkscape-font-specification:'Swanston, Bold';text-align:center;word-spacing:-40px;white-space:pre;shape-inside:url(#rect5372);shape-padding:0;display:inline;opacity:0.8;fill:#10d6d8;fill-opacity:1;stroke:#10d6d8;stroke-width:3;stroke-linecap:round;stroke-dasharray:none;stroke-opacity:1;filter:url(#filter32227)"
           x="-493.74872"
           y="0"><tspan
             x="72.568359"
             y="179.68726"
             id="tspan3987"><tspan
               style="text-align:start"
               id="tspan3985">{title}</tspan></tspan></text><text
           xml:space="preserve"
           id="text1116"
           style="font-weight:bold;font-size:133.333px;line-height:0.8;font-family:Swanston;-inkscape-font-specification:'Swanston, Bold';text-align:start;word-spacing:-40px;white-space:pre;shape-inside:url(#rect1118);shape-padding:0;display:inline;opacity:0.9;fill:#ffffff;stroke:#10d8c5;stroke-width:1.9;stroke-linecap:round;stroke-linejoin:round;stroke-dasharray:none;stroke-opacity:1"
           x="-493.74872"
           y="0"><tspan
             x="72.568359"
             y="179.68726"
             id="tspan3989">{title}</tspan></text></g><g
         id="g2461"
         transform="matrix(1,0,-0.24615816,1,149.19246,0)"><text
           xml:space="preserve"
           style="font-weight:bold;font-size:133.333px;font-family:Swanston;-inkscape-font-specification:'Swanston, Bold';text-align:end;text-anchor:end;opacity:0.7;mix-blend-mode:normal;fill:#f7ce7e;fill-opacity:1;stroke:#f7ce7e;stroke-width:3;stroke-linecap:round;stroke-opacity:1;filter:url(#filter8188)"
           x="1228"
           y="664"
           id="text6999"><tspan
             sodipodi:role="line"
             x="1228"
             y="664"
             style="text-align:end;text-anchor:end;fill:#f7ce7e;fill-opacity:1;stroke:#f7ce7e;stroke-opacity:1"
             id="tspan6997">{count}</tspan></text><text
           xml:space="preserve"
           style="font-weight:bold;font-size:133.333px;font-family:Swanston;-inkscape-font-specification:'Swanston, Bold';text-align:end;text-anchor:end;opacity:1;mix-blend-mode:normal;fill:#f7ce7e;fill-opacity:1;stroke:none;stroke-width:3;stroke-linecap:round"
           x="1228"
           y="664"
           id="text339"><tspan
             sodipodi:role="line"
             x="1228"
             y="664"
             style="text-align:end;text-anchor:end;fill:#f7ce7e;fill-opacity:1;stroke:none"
             id="tspan2716">{count}</tspan></text></g></g></g><script
     id="mesh_polyfill"
     type="text/javascript">
!function(){const t=&quot;http://www.w3.org/2000/svg&quot;,e=&quot;http://www.w3.org/1999/xlink&quot;,s=&quot;http://www.w3.org/1999/xhtml&quot;,r=2;if(document.createElementNS(t,&quot;meshgradient&quot;).x)return;const n=(t,e,s,r)=&gt;{let n=new x(.5*(e.x+s.x),.5*(e.y+s.y)),o=new x(.5*(t.x+e.x),.5*(t.y+e.y)),i=new x(.5*(s.x+r.x),.5*(s.y+r.y)),a=new x(.5*(n.x+o.x),.5*(n.y+o.y)),h=new x(.5*(n.x+i.x),.5*(n.y+i.y)),l=new x(.5*(a.x+h.x),.5*(a.y+h.y));return[[t,o,a,l],[l,h,i,r]]},o=t=&gt;{let e=t[0].distSquared(t[1]),s=t[2].distSquared(t[3]),r=.25*t[0].distSquared(t[2]),n=.25*t[1].distSquared(t[3]),o=e&gt;s?e:s,i=r&gt;n?r:n;return 18*(o&gt;i?o:i)},i=(t,e)=&gt;Math.sqrt(t.distSquared(e)),a=(t,e)=&gt;t.scale(2/3).add(e.scale(1/3)),h=t=&gt;{let e,s,r,n,o,i,a,h=new g;return t.match(/(\w+\(\s*[^)]+\))+/g).forEach(t=&gt;{let l=t.match(/[\w.-]+/g),d=l.shift();switch(d){case&quot;translate&quot;:2===l.length?e=new g(1,0,0,1,l[0],l[1]):(console.error(&quot;mesh.js: translate does not have 2 arguments!&quot;),e=new g(1,0,0,1,0,0)),h=h.append(e);break;case&quot;scale&quot;:1===l.length?s=new g(l[0],0,0,l[0],0,0):2===l.length?s=new g(l[0],0,0,l[1],0,0):(console.error(&quot;mesh.js: scale does not have 1 or 2 arguments!&quot;),s=new g(1,0,0,1,0,0)),h=h.append(s);break;case&quot;rotate&quot;:if(3===l.length&amp;&amp;(e=new g(1,0,0,1,l[1],l[2]),h=h.append(e)),l[0]){r=l[0]*Math.PI/180;let t=Math.cos(r),e=Math.sin(r);Math.abs(t)&lt;1e-16&amp;&amp;(t=0),Math.abs(e)&lt;1e-16&amp;&amp;(e=0),a=new g(t,e,-e,t,0,0),h=h.append(a)}else console.error(&quot;math.js: No argument to rotate transform!&quot;);3===l.length&amp;&amp;(e=new g(1,0,0,1,-l[1],-l[2]),h=h.append(e));break;case&quot;skewX&quot;:l[0]?(r=l[0]*Math.PI/180,n=Math.tan(r),o=new g(1,0,n,1,0,0),h=h.append(o)):console.error(&quot;math.js: No argument to skewX transform!&quot;);break;case&quot;skewY&quot;:l[0]?(r=l[0]*Math.PI/180,n=Math.tan(r),i=new g(1,n,0,1,0,0),h=h.append(i)):console.error(&quot;math.js: No argument to skewY transform!&quot;);break;case&quot;matrix&quot;:6===l.length?h=h.append(new g(...l)):console.error(&quot;math.js: Incorrect number of arguments for matrix!&quot;);break;default:console.error(&quot;mesh.js: Unhandled transform type: &quot;+d)}}),h},l=t=&gt;{let e=[],s=t.split(/[ ,]+/);for(let t=0,r=s.length-1;t&lt;r;t+=2)e.push(new x(parseFloat(s[t]),parseFloat(s[t+1])));return e},d=(t,e)=&gt;{for(let s in e)t.setAttribute(s,e[s])},c=(t,e,s,r,n)=&gt;{let o,i,a=[0,0,0,0];for(let h=0;h&lt;3;++h)e[h]&lt;t[h]&amp;&amp;e[h]&lt;s[h]||t[h]&lt;e[h]&amp;&amp;s[h]&lt;e[h]?a[h]=0:(a[h]=.5*((e[h]-t[h])/r+(s[h]-e[h])/n),o=Math.abs(3*(e[h]-t[h])/r),i=Math.abs(3*(s[h]-e[h])/n),a[h]&gt;o?a[h]=o:a[h]&gt;i&amp;&amp;(a[h]=i));return a},u=[[1,0,0,0,0,0,0,0,0,0,0,0,0,0,0,0],[0,0,0,0,1,0,0,0,0,0,0,0,0,0,0,0],[-3,3,0,0,-2,-1,0,0,0,0,0,0,0,0,0,0],[2,-2,0,0,1,1,0,0,0,0,0,0,0,0,0,0],[0,0,0,0,0,0,0,0,1,0,0,0,0,0,0,0],[0,0,0,0,0,0,0,0,0,0,0,0,1,0,0,0],[0,0,0,0,0,0,0,0,-3,3,0,0,-2,-1,0,0],[0,0,0,0,0,0,0,0,2,-2,0,0,1,1,0,0],[-3,0,3,0,0,0,0,0,-2,0,-1,0,0,0,0,0],[0,0,0,0,-3,0,3,0,0,0,0,0,-2,0,-1,0],[9,-9,-9,9,6,3,-6,-3,6,-6,3,-3,4,2,2,1],[-6,6,6,-6,-3,-3,3,3,-4,4,-2,2,-2,-2,-1,-1],[2,0,-2,0,0,0,0,0,1,0,1,0,0,0,0,0],[0,0,0,0,2,0,-2,0,0,0,0,0,1,0,1,0],[-6,6,6,-6,-4,-2,4,2,-3,3,-3,3,-2,-1,-2,-1],[4,-4,-4,4,2,2,-2,-2,2,-2,2,-2,1,1,1,1]],f=t=&gt;{let e=[];for(let s=0;s&lt;16;++s){e[s]=0;for(let r=0;r&lt;16;++r)e[s]+=u[s][r]*t[r]}return e},p=(t,e,s)=&gt;{const r=e*e,n=s*s,o=e*e*e,i=s*s*s;return t[0]+t[1]*e+t[2]*r+t[3]*o+t[4]*s+t[5]*s*e+t[6]*s*r+t[7]*s*o+t[8]*n+t[9]*n*e+t[10]*n*r+t[11]*n*o+t[12]*i+t[13]*i*e+t[14]*i*r+t[15]*i*o},y=t=&gt;{let e=[],s=[],r=[];for(let s=0;s&lt;4;++s)e[s]=[],e[s][0]=n(t[0][s],t[1][s],t[2][s],t[3][s]),e[s][1]=[],e[s][1].push(...n(...e[s][0][0])),e[s][1].push(...n(...e[s][0][1])),e[s][2]=[],e[s][2].push(...n(...e[s][1][0])),e[s][2].push(...n(...e[s][1][1])),e[s][2].push(...n(...e[s][1][2])),e[s][2].push(...n(...e[s][1][3]));for(let t=0;t&lt;8;++t){s[t]=[];for(let r=0;r&lt;4;++r)s[t][r]=[],s[t][r][0]=n(e[0][2][t][r],e[1][2][t][r],e[2][2][t][r],e[3][2][t][r]),s[t][r][1]=[],s[t][r][1].push(...n(...s[t][r][0][0])),s[t][r][1].push(...n(...s[t][r][0][1])),s[t][r][2]=[],s[t][r][2].push(...n(...s[t][r][1][0])),s[t][r][2].push(...n(...s[t][r][1][1])),s[t][r][2].push(...n(...s[t][r][1][2])),s[t][r][2].push(...n(...s[t][r][1][3]))}for(let t=0;t&lt;8;++t){r[t]=[];for(let e=0;e&lt;8;++e)r[t][e]=[],r[t][e][0]=s[t][0][2][e],r[t][e][1]=s[t][1][2][e],r[t][e][2]=s[t][2][2][e],r[t][e][3]=s[t][3][2][e]}return r};class x{constructor(t,e){this.x=t||0,this.y=e||0}toString(){return`(x=${this.x}, y=${this.y})`}clone(){return new x(this.x,this.y)}add(t){return new x(this.x+t.x,this.y+t.y)}scale(t){return void 0===t.x?new x(this.x*t,this.y*t):new x(this.x*t.x,this.y*t.y)}distSquared(t){let e=this.x-t.x,s=this.y-t.y;return e*e+s*s}transform(t){let e=this.x*t.a+this.y*t.c+t.e,s=this.x*t.b+this.y*t.d+t.f;return new x(e,s)}}class g{constructor(t,e,s,r,n,o){void 0===t?(this.a=1,this.b=0,this.c=0,this.d=1,this.e=0,this.f=0):(this.a=t,this.b=e,this.c=s,this.d=r,this.e=n,this.f=o)}toString(){return`affine: ${this.a} ${this.c} ${this.e} \n       ${this.b} ${this.d} ${this.f}`}append(t){t instanceof g||console.error(&quot;mesh.js: argument to Affine.append is not affine!&quot;);let e=this.a*t.a+this.c*t.b,s=this.b*t.a+this.d*t.b,r=this.a*t.c+this.c*t.d,n=this.b*t.c+this.d*t.d,o=this.a*t.e+this.c*t.f+this.e,i=this.b*t.e+this.d*t.f+this.f;return new g(e,s,r,n,o,i)}}class w{constructor(t,e){this.nodes=t,this.colors=e}paintCurve(t,e){if(o(this.nodes)&gt;r){const s=n(...this.nodes);let r=[[],[]],o=[[],[]];for(let t=0;t&lt;4;++t)r[0][t]=this.colors[0][t],r[1][t]=(this.colors[0][t]+this.colors[1][t])/2,o[0][t]=r[1][t],o[1][t]=this.colors[1][t];let i=new w(s[0],r),a=new w(s[1],o);i.paintCurve(t,e),a.paintCurve(t,e)}else{let s=Math.round(this.nodes[0].x);if(s&gt;=0&amp;&amp;s&lt;e){let r=4*(~~this.nodes[0].y*e+s);t[r]=Math.round(this.colors[0][0]),t[r+1]=Math.round(this.colors[0][1]),t[r+2]=Math.round(this.colors[0][2]),t[r+3]=Math.round(this.colors[0][3])}}}}class m{constructor(t,e){this.nodes=t,this.colors=e}split(){let t=[[],[],[],[]],e=[[],[],[],[]],s=[[[],[]],[[],[]]],r=[[[],[]],[[],[]]];for(let s=0;s&lt;4;++s){const r=n(this.nodes[0][s],this.nodes[1][s],this.nodes[2][s],this.nodes[3][s]);t[0][s]=r[0][0],t[1][s]=r[0][1],t[2][s]=r[0][2],t[3][s]=r[0][3],e[0][s]=r[1][0],e[1][s]=r[1][1],e[2][s]=r[1][2],e[3][s]=r[1][3]}for(let t=0;t&lt;4;++t)s[0][0][t]=this.colors[0][0][t],s[0][1][t]=this.colors[0][1][t],s[1][0][t]=(this.colors[0][0][t]+this.colors[1][0][t])/2,s[1][1][t]=(this.colors[0][1][t]+this.colors[1][1][t])/2,r[0][0][t]=s[1][0][t],r[0][1][t]=s[1][1][t],r[1][0][t]=this.colors[1][0][t],r[1][1][t]=this.colors[1][1][t];return[new m(t,s),new m(e,r)]}paint(t,e){let s,n=!1;for(let t=0;t&lt;4;++t)if((s=o([this.nodes[0][t],this.nodes[1][t],this.nodes[2][t],this.nodes[3][t]]))&gt;r){n=!0;break}if(n){let s=this.split();s[0].paint(t,e),s[1].paint(t,e)}else{new w([...this.nodes[0]],[...this.colors[0]]).paintCurve(t,e)}}}class b{constructor(t){this.readMesh(t),this.type=t.getAttribute(&quot;type&quot;)||&quot;bilinear&quot;}readMesh(t){let e=[[]],s=[[]],r=Number(t.getAttribute(&quot;x&quot;)),n=Number(t.getAttribute(&quot;y&quot;));e[0][0]=new x(r,n);let o=t.children;for(let t=0,r=o.length;t&lt;r;++t){e[3*t+1]=[],e[3*t+2]=[],e[3*t+3]=[],s[t+1]=[];let r=o[t].children;for(let n=0,o=r.length;n&lt;o;++n){let o=r[n].children;for(let r=0,i=o.length;r&lt;i;++r){let i=r;0!==t&amp;&amp;++i;let h,d=o[r].getAttribute(&quot;path&quot;),c=&quot;l&quot;;null!=d&amp;&amp;(c=(h=d.match(/\s*([lLcC])\s*(.*)/))[1]);let u=l(h[2]);switch(c){case&quot;l&quot;:0===i?(e[3*t][3*n+3]=u[0].add(e[3*t][3*n]),e[3*t][3*n+1]=a(e[3*t][3*n],e[3*t][3*n+3]),e[3*t][3*n+2]=a(e[3*t][3*n+3],e[3*t][3*n])):1===i?(e[3*t+3][3*n+3]=u[0].add(e[3*t][3*n+3]),e[3*t+1][3*n+3]=a(e[3*t][3*n+3],e[3*t+3][3*n+3]),e[3*t+2][3*n+3]=a(e[3*t+3][3*n+3],e[3*t][3*n+3])):2===i?(0===n&amp;&amp;(e[3*t+3][3*n+0]=u[0].add(e[3*t+3][3*n+3])),e[3*t+3][3*n+1]=a(e[3*t+3][3*n],e[3*t+3][3*n+3]),e[3*t+3][3*n+2]=a(e[3*t+3][3*n+3],e[3*t+3][3*n])):(e[3*t+1][3*n]=a(e[3*t][3*n],e[3*t+3][3*n]),e[3*t+2][3*n]=a(e[3*t+3][3*n],e[3*t][3*n]));break;case&quot;L&quot;:0===i?(e[3*t][3*n+3]=u[0],e[3*t][3*n+1]=a(e[3*t][3*n],e[3*t][3*n+3]),e[3*t][3*n+2]=a(e[3*t][3*n+3],e[3*t][3*n])):1===i?(e[3*t+3][3*n+3]=u[0],e[3*t+1][3*n+3]=a(e[3*t][3*n+3],e[3*t+3][3*n+3]),e[3*t+2][3*n+3]=a(e[3*t+3][3*n+3],e[3*t][3*n+3])):2===i?(0===n&amp;&amp;(e[3*t+3][3*n+0]=u[0]),e[3*t+3][3*n+1]=a(e[3*t+3][3*n],e[3*t+3][3*n+3]),e[3*t+3][3*n+2]=a(e[3*t+3][3*n+3],e[3*t+3][3*n])):(e[3*t+1][3*n]=a(e[3*t][3*n],e[3*t+3][3*n]),e[3*t+2][3*n]=a(e[3*t+3][3*n],e[3*t][3*n]));break;case&quot;c&quot;:0===i?(e[3*t][3*n+1]=u[0].add(e[3*t][3*n]),e[3*t][3*n+2]=u[1].add(e[3*t][3*n]),e[3*t][3*n+3]=u[2].add(e[3*t][3*n])):1===i?(e[3*t+1][3*n+3]=u[0].add(e[3*t][3*n+3]),e[3*t+2][3*n+3]=u[1].add(e[3*t][3*n+3]),e[3*t+3][3*n+3]=u[2].add(e[3*t][3*n+3])):2===i?(e[3*t+3][3*n+2]=u[0].add(e[3*t+3][3*n+3]),e[3*t+3][3*n+1]=u[1].add(e[3*t+3][3*n+3]),0===n&amp;&amp;(e[3*t+3][3*n+0]=u[2].add(e[3*t+3][3*n+3]))):(e[3*t+2][3*n]=u[0].add(e[3*t+3][3*n]),e[3*t+1][3*n]=u[1].add(e[3*t+3][3*n]));break;case&quot;C&quot;:0===i?(e[3*t][3*n+1]=u[0],e[3*t][3*n+2]=u[1],e[3*t][3*n+3]=u[2]):1===i?(e[3*t+1][3*n+3]=u[0],e[3*t+2][3*n+3]=u[1],e[3*t+3][3*n+3]=u[2]):2===i?(e[3*t+3][3*n+2]=u[0],e[3*t+3][3*n+1]=u[1],0===n&amp;&amp;(e[3*t+3][3*n+0]=u[2])):(e[3*t+2][3*n]=u[0],e[3*t+1][3*n]=u[1]);break;default:console.error(&quot;mesh.js: &quot;+c+&quot; invalid path type.&quot;)}if(0===t&amp;&amp;0===n||r&gt;0){let e=window.getComputedStyle(o[r]).stopColor.match(/^rgb\s*\(\s*(\d+)\s*,\s*(\d+)\s*,\s*(\d+)\s*\)$/i),a=window.getComputedStyle(o[r]).stopOpacity,h=255;a&amp;&amp;(h=Math.floor(255*a)),e&amp;&amp;(0===i?(s[t][n]=[],s[t][n][0]=Math.floor(e[1]),s[t][n][1]=Math.floor(e[2]),s[t][n][2]=Math.floor(e[3]),s[t][n][3]=h):1===i?(s[t][n+1]=[],s[t][n+1][0]=Math.floor(e[1]),s[t][n+1][1]=Math.floor(e[2]),s[t][n+1][2]=Math.floor(e[3]),s[t][n+1][3]=h):2===i?(s[t+1][n+1]=[],s[t+1][n+1][0]=Math.floor(e[1]),s[t+1][n+1][1]=Math.floor(e[2]),s[t+1][n+1][2]=Math.floor(e[3]),s[t+1][n+1][3]=h):3===i&amp;&amp;(s[t+1][n]=[],s[t+1][n][0]=Math.floor(e[1]),s[t+1][n][1]=Math.floor(e[2]),s[t+1][n][2]=Math.floor(e[3]),s[t+1][n][3]=h))}}e[3*t+1][3*n+1]=new x,e[3*t+1][3*n+2]=new x,e[3*t+2][3*n+1]=new x,e[3*t+2][3*n+2]=new x,e[3*t+1][3*n+1].x=(-4*e[3*t][3*n].x+6*(e[3*t][3*n+1].x+e[3*t+1][3*n].x)+-2*(e[3*t][3*n+3].x+e[3*t+3][3*n].x)+3*(e[3*t+3][3*n+1].x+e[3*t+1][3*n+3].x)+-1*e[3*t+3][3*n+3].x)/9,e[3*t+1][3*n+2].x=(-4*e[3*t][3*n+3].x+6*(e[3*t][3*n+2].x+e[3*t+1][3*n+3].x)+-2*(e[3*t][3*n].x+e[3*t+3][3*n+3].x)+3*(e[3*t+3][3*n+2].x+e[3*t+1][3*n].x)+-1*e[3*t+3][3*n].x)/9,e[3*t+2][3*n+1].x=(-4*e[3*t+3][3*n].x+6*(e[3*t+3][3*n+1].x+e[3*t+2][3*n].x)+-2*(e[3*t+3][3*n+3].x+e[3*t][3*n].x)+3*(e[3*t][3*n+1].x+e[3*t+2][3*n+3].x)+-1*e[3*t][3*n+3].x)/9,e[3*t+2][3*n+2].x=(-4*e[3*t+3][3*n+3].x+6*(e[3*t+3][3*n+2].x+e[3*t+2][3*n+3].x)+-2*(e[3*t+3][3*n].x+e[3*t][3*n+3].x)+3*(e[3*t][3*n+2].x+e[3*t+2][3*n].x)+-1*e[3*t][3*n].x)/9,e[3*t+1][3*n+1].y=(-4*e[3*t][3*n].y+6*(e[3*t][3*n+1].y+e[3*t+1][3*n].y)+-2*(e[3*t][3*n+3].y+e[3*t+3][3*n].y)+3*(e[3*t+3][3*n+1].y+e[3*t+1][3*n+3].y)+-1*e[3*t+3][3*n+3].y)/9,e[3*t+1][3*n+2].y=(-4*e[3*t][3*n+3].y+6*(e[3*t][3*n+2].y+e[3*t+1][3*n+3].y)+-2*(e[3*t][3*n].y+e[3*t+3][3*n+3].y)+3*(e[3*t+3][3*n+2].y+e[3*t+1][3*n].y)+-1*e[3*t+3][3*n].y)/9,e[3*t+2][3*n+1].y=(-4*e[3*t+3][3*n].y+6*(e[3*t+3][3*n+1].y+e[3*t+2][3*n].y)+-2*(e[3*t+3][3*n+3].y+e[3*t][3*n].y)+3*(e[3*t][3*n+1].y+e[3*t+2][3*n+3].y)+-1*e[3*t][3*n+3].y)/9,e[3*t+2][3*n+2].y=(-4*e[3*t+3][3*n+3].y+6*(e[3*t+3][3*n+2].y+e[3*t+2][3*n+3].y)+-2*(e[3*t+3][3*n].y+e[3*t][3*n+3].y)+3*(e[3*t][3*n+2].y+e[3*t+2][3*n].y)+-1*e[3*t][3*n].y)/9}}this.nodes=e,this.colors=s}paintMesh(t,e){let s=(this.nodes.length-1)/3,r=(this.nodes[0].length-1)/3;if(&quot;bilinear&quot;===this.type||s&lt;2||r&lt;2){let n;for(let o=0;o&lt;s;++o)for(let s=0;s&lt;r;++s){let r=[];for(let t=3*o,e=3*o+4;t&lt;e;++t)r.push(this.nodes[t].slice(3*s,3*s+4));let i=[];i.push(this.colors[o].slice(s,s+2)),i.push(this.colors[o+1].slice(s,s+2)),(n=new m(r,i)).paint(t,e)}}else{let n,o,a,h,l,d,u;const x=s,g=r;s++,r++;let w=new Array(s);for(let t=0;t&lt;s;++t){w[t]=new Array(r);for(let e=0;e&lt;r;++e)w[t][e]=[],w[t][e][0]=this.nodes[3*t][3*e],w[t][e][1]=this.colors[t][e]}for(let t=0;t&lt;s;++t)for(let e=0;e&lt;r;++e)0!==t&amp;&amp;t!==x&amp;&amp;(n=i(w[t-1][e][0],w[t][e][0]),o=i(w[t+1][e][0],w[t][e][0]),w[t][e][2]=c(w[t-1][e][1],w[t][e][1],w[t+1][e][1],n,o)),0!==e&amp;&amp;e!==g&amp;&amp;(n=i(w[t][e-1][0],w[t][e][0]),o=i(w[t][e+1][0],w[t][e][0]),w[t][e][3]=c(w[t][e-1][1],w[t][e][1],w[t][e+1][1],n,o));for(let t=0;t&lt;r;++t){w[0][t][2]=[],w[x][t][2]=[];for(let e=0;e&lt;4;++e)n=i(w[1][t][0],w[0][t][0]),o=i(w[x][t][0],w[x-1][t][0]),w[0][t][2][e]=n&gt;0?2*(w[1][t][1][e]-w[0][t][1][e])/n-w[1][t][2][e]:0,w[x][t][2][e]=o&gt;0?2*(w[x][t][1][e]-w[x-1][t][1][e])/o-w[x-1][t][2][e]:0}for(let t=0;t&lt;s;++t){w[t][0][3]=[],w[t][g][3]=[];for(let e=0;e&lt;4;++e)n=i(w[t][1][0],w[t][0][0]),o=i(w[t][g][0],w[t][g-1][0]),w[t][0][3][e]=n&gt;0?2*(w[t][1][1][e]-w[t][0][1][e])/n-w[t][1][3][e]:0,w[t][g][3][e]=o&gt;0?2*(w[t][g][1][e]-w[t][g-1][1][e])/o-w[t][g-1][3][e]:0}for(let s=0;s&lt;x;++s)for(let r=0;r&lt;g;++r){let n=i(w[s][r][0],w[s+1][r][0]),o=i(w[s][r+1][0],w[s+1][r+1][0]),c=i(w[s][r][0],w[s][r+1][0]),x=i(w[s+1][r][0],w[s+1][r+1][0]),g=[[],[],[],[]];for(let t=0;t&lt;4;++t){(d=[])[0]=w[s][r][1][t],d[1]=w[s+1][r][1][t],d[2]=w[s][r+1][1][t],d[3]=w[s+1][r+1][1][t],d[4]=w[s][r][2][t]*n,d[5]=w[s+1][r][2][t]*n,d[6]=w[s][r+1][2][t]*o,d[7]=w[s+1][r+1][2][t]*o,d[8]=w[s][r][3][t]*c,d[9]=w[s+1][r][3][t]*x,d[10]=w[s][r+1][3][t]*c,d[11]=w[s+1][r+1][3][t]*x,d[12]=0,d[13]=0,d[14]=0,d[15]=0,u=f(d);for(let e=0;e&lt;9;++e){g[t][e]=[];for(let s=0;s&lt;9;++s)g[t][e][s]=p(u,e/8,s/8),g[t][e][s]&gt;255?g[t][e][s]=255:g[t][e][s]&lt;0&amp;&amp;(g[t][e][s]=0)}}h=[];for(let t=3*s,e=3*s+4;t&lt;e;++t)h.push(this.nodes[t].slice(3*r,3*r+4));l=y(h);for(let s=0;s&lt;8;++s)for(let r=0;r&lt;8;++r)(a=new m(l[s][r],[[[g[0][s][r],g[1][s][r],g[2][s][r],g[3][s][r]],[g[0][s][r+1],g[1][s][r+1],g[2][s][r+1],g[3][s][r+1]]],[[g[0][s+1][r],g[1][s+1][r],g[2][s+1][r],g[3][s+1][r]],[g[0][s+1][r+1],g[1][s+1][r+1],g[2][s+1][r+1],g[3][s+1][r+1]]]])).paint(t,e)}}}transform(t){if(t instanceof x)for(let e=0,s=this.nodes.length;e&lt;s;++e)for(let s=0,r=this.nodes[0].length;s&lt;r;++s)this.nodes[e][s]=this.nodes[e][s].add(t);else if(t instanceof g)for(let e=0,s=this.nodes.length;e&lt;s;++e)for(let s=0,r=this.nodes[0].length;s&lt;r;++s)this.nodes[e][s]=this.nodes[e][s].transform(t)}scale(t){for(let e=0,s=this.nodes.length;e&lt;s;++e)for(let s=0,r=this.nodes[0].length;s&lt;r;++s)this.nodes[e][s]=this.nodes[e][s].scale(t)}}document.querySelectorAll(&quot;rect,circle,ellipse,path,text&quot;).forEach((r,n)=&gt;{let o=r.getAttribute(&quot;id&quot;);o||(o=&quot;patchjs_shape&quot;+n,r.setAttribute(&quot;id&quot;,o));const i=r.style.fill.match(/^url\(\s*&quot;?\s*#([^\s&quot;]+)&quot;?\s*\)/),a=r.style.stroke.match(/^url\(\s*&quot;?\s*#([^\s&quot;]+)&quot;?\s*\)/);if(i&amp;&amp;i[1]){const a=document.getElementById(i[1]);if(a&amp;&amp;&quot;meshgradient&quot;===a.nodeName){const i=r.getBBox();let l=document.createElementNS(s,&quot;canvas&quot;);d(l,{width:i.width,height:i.height});const c=l.getContext(&quot;2d&quot;);let u=c.createImageData(i.width,i.height);const f=new b(a);&quot;objectBoundingBox&quot;===a.getAttribute(&quot;gradientUnits&quot;)&amp;&amp;f.scale(new x(i.width,i.height));const p=a.getAttribute(&quot;gradientTransform&quot;);null!=p&amp;&amp;f.transform(h(p)),&quot;userSpaceOnUse&quot;===a.getAttribute(&quot;gradientUnits&quot;)&amp;&amp;f.transform(new x(-i.x,-i.y)),f.paintMesh(u.data,l.width),c.putImageData(u,0,0);const y=document.createElementNS(t,&quot;image&quot;);d(y,{width:i.width,height:i.height,x:i.x,y:i.y});let g=l.toDataURL();y.setAttributeNS(e,&quot;xlink:href&quot;,g),r.parentNode.insertBefore(y,r),r.style.fill=&quot;none&quot;;const w=document.createElementNS(t,&quot;use&quot;);w.setAttributeNS(e,&quot;xlink:href&quot;,&quot;#&quot;+o);const m=&quot;patchjs_clip&quot;+n,M=document.createElementNS(t,&quot;clipPath&quot;);M.setAttribute(&quot;id&quot;,m),M.appendChild(w),r.parentElement.insertBefore(M,r),y.setAttribute(&quot;clip-path&quot;,&quot;url(#&quot;+m+&quot;)&quot;),u=null,l=null,g=null}}if(a&amp;&amp;a[1]){const o=document.getElementById(a[1]);if(o&amp;&amp;&quot;meshgradient&quot;===o.nodeName){const i=parseFloat(r.style.strokeWidth.slice(0,-2))*(parseFloat(r.style.strokeMiterlimit)||parseFloat(r.getAttribute(&quot;stroke-miterlimit&quot;))||1),a=r.getBBox(),l=Math.trunc(a.width+i),c=Math.trunc(a.height+i),u=Math.trunc(a.x-i/2),f=Math.trunc(a.y-i/2);let p=document.createElementNS(s,&quot;canvas&quot;);d(p,{width:l,height:c});const y=p.getContext(&quot;2d&quot;);let g=y.createImageData(l,c);const w=new b(o);&quot;objectBoundingBox&quot;===o.getAttribute(&quot;gradientUnits&quot;)&amp;&amp;w.scale(new x(l,c));const m=o.getAttribute(&quot;gradientTransform&quot;);null!=m&amp;&amp;w.transform(h(m)),&quot;userSpaceOnUse&quot;===o.getAttribute(&quot;gradientUnits&quot;)&amp;&amp;w.transform(new x(-u,-f)),w.paintMesh(g.data,p.width),y.putImageData(g,0,0);const M=document.createElementNS(t,&quot;image&quot;);d(M,{width:l,height:c,x:0,y:0});let S=p.toDataURL();M.setAttributeNS(e,&quot;xlink:href&quot;,S);const k=&quot;pattern_clip&quot;+n,A=document.createElementNS(t,&quot;pattern&quot;);d(A,{id:k,patternUnits:&quot;userSpaceOnUse&quot;,width:l,height:c,x:u,y:f}),A.appendChild(M),o.parentNode.appendChild(A),r.style.stroke=&quot;url(#&quot;+k+&quot;)&quot;,g=null,p=null,S=null}}})}();
</script></svg>
